<svg xmlns="http://www.w3.org/2000/svg" xmlns:xlink="http://www.w3.org/1999/xlink" xml:lang="en" id="4afbc6debe3d4b41abe894ac0a540b1d-0" class="displacy" width="1800" height="487.0" direction="ltr" style="max-width: none; height: 487.0px; color: #000000; background: #ffffff; font-family: Arial; direction: ltr">
<text class="displacy-token" fill="currentColor" text-anchor="middle" y="397.0">
    <tspan class="displacy-word" fill="currentColor" x="50">front</tspan>
    <tspan class="displacy-tag" dy="2em" fill="currentColor" x="50">ADJ</tspan>
</text>

<text class="displacy-token" fill="currentColor" text-anchor="middle" y="397.0">
    <tspan class="displacy-word" fill="currentColor" x="225">windows</tspan>
    <tspan class="displacy-tag" dy="2em" fill="currentColor" x="225">NOUN</tspan>
</text>

<text class="displacy-token" fill="currentColor" text-anchor="middle" y="397.0">
    <tspan class="displacy-word" fill="currentColor" x="400">shall</tspan>
    <tspan class="displacy-tag" dy="2em" fill="currentColor" x="400">AUX</tspan>
</text>

<text class="displacy-token" fill="currentColor" text-anchor="middle" y="397.0">
    <tspan class="displacy-word" fill="currentColor" x="575">be</tspan>
    <tspan class="displacy-tag" dy="2em" fill="currentColor" x="575">AUX</tspan>
</text>

<text class="displacy-token" fill="currentColor" text-anchor="middle" y="397.0">
    <tspan class="displacy-word" fill="currentColor" x="750">electrically-</tspan>
    <tspan class="displacy-tag" dy="2em" fill="currentColor" x="750">ADV</tspan>
</text>

<text class="displacy-token" fill="currentColor" text-anchor="middle" y="397.0">
    <tspan class="displacy-word" fill="currentColor" x="925">operated</tspan>
    <tspan class="displacy-tag" dy="2em" fill="currentColor" x="925">VERB</tspan>
</text>

<text class="displacy-token" fill="currentColor" text-anchor="middle" y="397.0">
    <tspan class="displacy-word" fill="currentColor" x="1100">with</tspan>
    <tspan class="displacy-tag" dy="2em" fill="currentColor" x="1100">ADP</tspan>
</text>

<text class="displacy-token" fill="currentColor" text-anchor="middle" y="397.0">
    <tspan class="displacy-word" fill="currentColor" x="1275">driver</tspan>
    <tspan class="displacy-tag" dy="2em" fill="currentColor" x="1275">NOUN</tspan>
</text>

<text class="displacy-token" fill="currentColor" text-anchor="middle" y="397.0">
    <tspan class="displacy-word" fill="currentColor" x="1450">over-</tspan>
    <tspan class="displacy-tag" dy="2em" fill="currentColor" x="1450">ADP</tspan>
</text>

<text class="displacy-token" fill="currentColor" text-anchor="middle" y="397.0">
    <tspan class="displacy-word" fill="currentColor" x="1625">ride</tspan>
    <tspan class="displacy-tag" dy="2em" fill="currentColor" x="1625">NOUN</tspan>
</text>

<g class="displacy-arrow">
    <path class="displacy-arc" id="arrow-4afbc6debe3d4b41abe894ac0a540b1d-0-0" stroke-width="2px" d="M70,352.0 C70,264.5 210.0,264.5 210.0,352.0" fill="none" stroke="currentColor"/>
    <text dy="1.25em" style="font-size: 0.8em; letter-spacing: 1px">
        <textPath xlink:href="#arrow-4afbc6debe3d4b41abe894ac0a540b1d-0-0" class="displacy-label" startOffset="50%" side="left" fill="currentColor" text-anchor="middle">amod</textPath>
    </text>
    <path class="displacy-arrowhead" d="M70,354.0 L62,342.0 78,342.0" fill="currentColor"/>
</g>

<g class="displacy-arrow">
    <path class="displacy-arc" id="arrow-4afbc6debe3d4b41abe894ac0a540b1d-0-1" stroke-width="2px" d="M245,352.0 C245,2.0 925.0,2.0 925.0,352.0" fill="none" stroke="currentColor"/>
    <text dy="1.25em" style="font-size: 0.8em; letter-spacing: 1px">
        <textPath xlink:href="#arrow-4afbc6debe3d4b41abe894ac0a540b1d-0-1" class="displacy-label" startOffset="50%" side="left" fill="currentColor" text-anchor="middle">nsubjpass</textPath>
    </text>
    <path class="displacy-arrowhead" d="M245,354.0 L237,342.0 253,342.0" fill="currentColor"/>
</g>

<g class="displacy-arrow">
    <path class="displacy-arc" id="arrow-4afbc6debe3d4b41abe894ac0a540b1d-0-2" stroke-width="2px" d="M420,352.0 C420,264.5 560.0,264.5 560.0,352.0" fill="none" stroke="currentColor"/>
    <text dy="1.25em" style="font-size: 0.8em; letter-spacing: 1px">
        <textPath xlink:href="#arrow-4afbc6debe3d4b41abe894ac0a540b1d-0-2" class="displacy-label" startOffset="50%" side="left" fill="currentColor" text-anchor="middle">aux</textPath>
    </text>
    <path class="displacy-arrowhead" d="M420,354.0 L412,342.0 428,342.0" fill="currentColor"/>
</g>

<g class="displacy-arrow">
    <path class="displacy-arc" id="arrow-4afbc6debe3d4b41abe894ac0a540b1d-0-3" stroke-width="2px" d="M595,352.0 C595,177.0 915.0,177.0 915.0,352.0" fill="none" stroke="currentColor"/>
    <text dy="1.25em" style="font-size: 0.8em; letter-spacing: 1px">
        <textPath xlink:href="#arrow-4afbc6debe3d4b41abe894ac0a540b1d-0-3" class="displacy-label" startOffset="50%" side="left" fill="currentColor" text-anchor="middle">auxpass</textPath>
    </text>
    <path class="displacy-arrowhead" d="M595,354.0 L587,342.0 603,342.0" fill="currentColor"/>
</g>

<g class="displacy-arrow">
    <path class="displacy-arc" id="arrow-4afbc6debe3d4b41abe894ac0a540b1d-0-4" stroke-width="2px" d="M770,352.0 C770,264.5 910.0,264.5 910.0,352.0" fill="none" stroke="currentColor"/>
    <text dy="1.25em" style="font-size: 0.8em; letter-spacing: 1px">
        <textPath xlink:href="#arrow-4afbc6debe3d4b41abe894ac0a540b1d-0-4" class="displacy-label" startOffset="50%" side="left" fill="currentColor" text-anchor="middle">advmod</textPath>
    </text>
    <path class="displacy-arrowhead" d="M770,354.0 L762,342.0 778,342.0" fill="currentColor"/>
</g>

<g class="displacy-arrow">
    <path class="displacy-arc" id="arrow-4afbc6debe3d4b41abe894ac0a540b1d-0-5" stroke-width="2px" d="M945,352.0 C945,264.5 1085.0,264.5 1085.0,352.0" fill="none" stroke="currentColor"/>
    <text dy="1.25em" style="font-size: 0.8em; letter-spacing: 1px">
        <textPath xlink:href="#arrow-4afbc6debe3d4b41abe894ac0a540b1d-0-5" class="displacy-label" startOffset="50%" side="left" fill="currentColor" text-anchor="middle">prep</textPath>
    </text>
    <path class="displacy-arrowhead" d="M1085.0,354.0 L1093.0,342.0 1077.0,342.0" fill="currentColor"/>
</g>

<g class="displacy-arrow">
    <path class="displacy-arc" id="arrow-4afbc6debe3d4b41abe894ac0a540b1d-0-6" stroke-width="2px" d="M1295,352.0 C1295,177.0 1615.0,177.0 1615.0,352.0" fill="none" stroke="currentColor"/>
    <text dy="1.25em" style="font-size: 0.8em; letter-spacing: 1px">
        <textPath xlink:href="#arrow-4afbc6debe3d4b41abe894ac0a540b1d-0-6" class="displacy-label" startOffset="50%" side="left" fill="currentColor" text-anchor="middle">nmod</textPath>
    </text>
    <path class="displacy-arrowhead" d="M1295,354.0 L1287,342.0 1303,342.0" fill="currentColor"/>
</g>

<g class="displacy-arrow">
    <path class="displacy-arc" id="arrow-4afbc6debe3d4b41abe894ac0a540b1d-0-7" stroke-width="2px" d="M1470,352.0 C1470,264.5 1610.0,264.5 1610.0,352.0" fill="none" stroke="currentColor"/>
    <text dy="1.25em" style="font-size: 0.8em; letter-spacing: 1px">
        <textPath xlink:href="#arrow-4afbc6debe3d4b41abe894ac0a540b1d-0-7" class="displacy-label" startOffset="50%" side="left" fill="currentColor" text-anchor="middle">nmod</textPath>
    </text>
    <path class="displacy-arrowhead" d="M1470,354.0 L1462,342.0 1478,342.0" fill="currentColor"/>
</g>

<g class="displacy-arrow">
    <path class="displacy-arc" id="arrow-4afbc6debe3d4b41abe894ac0a540b1d-0-8" stroke-width="2px" d="M1120,352.0 C1120,89.5 1620.0,89.5 1620.0,352.0" fill="none" stroke="currentColor"/>
    <text dy="1.25em" style="font-size: 0.8em; letter-spacing: 1px">
        <textPath xlink:href="#arrow-4afbc6debe3d4b41abe894ac0a540b1d-0-8" class="displacy-label" startOffset="50%" side="left" fill="currentColor" text-anchor="middle">pobj</textPath>
    </text>
    <path class="displacy-arrowhead" d="M1620.0,354.0 L1628.0,342.0 1612.0,342.0" fill="currentColor"/>
</g>
</svg>