<svg xmlns="http://www.w3.org/2000/svg" xmlns:xlink="http://www.w3.org/1999/xlink" xml:lang="en" id="52c27650f74f4289a6d74941c7e84548-0" class="displacy" width="1100" height="312.0" direction="ltr" style="max-width: none; height: 312.0px; color: #000000; background: #ffffff; font-family: Arial; direction: ltr">
<text class="displacy-token" fill="currentColor" text-anchor="middle" y="222.0">
    <tspan class="displacy-word" fill="currentColor" x="50">top</tspan>
    <tspan class="displacy-tag" dy="2em" fill="currentColor" x="50">ADJ</tspan>
</text>

<text class="displacy-token" fill="currentColor" text-anchor="middle" y="222.0">
    <tspan class="displacy-word" fill="currentColor" x="225">speed</tspan>
    <tspan class="displacy-tag" dy="2em" fill="currentColor" x="225">NOUN</tspan>
</text>

<text class="displacy-token" fill="currentColor" text-anchor="middle" y="222.0">
    <tspan class="displacy-word" fill="currentColor" x="400">shall</tspan>
    <tspan class="displacy-tag" dy="2em" fill="currentColor" x="400">AUX</tspan>
</text>

<text class="displacy-token" fill="currentColor" text-anchor="middle" y="222.0">
    <tspan class="displacy-word" fill="currentColor" x="575">exceed</tspan>
    <tspan class="displacy-tag" dy="2em" fill="currentColor" x="575">VERB</tspan>
</text>

<text class="displacy-token" fill="currentColor" text-anchor="middle" y="222.0">
    <tspan class="displacy-word" fill="currentColor" x="750">150</tspan>
    <tspan class="displacy-tag" dy="2em" fill="currentColor" x="750">NUM</tspan>
</text>

<text class="displacy-token" fill="currentColor" text-anchor="middle" y="222.0">
    <tspan class="displacy-word" fill="currentColor" x="925">mph.</tspan>
    <tspan class="displacy-tag" dy="2em" fill="currentColor" x="925">NOUN</tspan>
</text>

<g class="displacy-arrow">
    <path class="displacy-arc" id="arrow-52c27650f74f4289a6d74941c7e84548-0-0" stroke-width="2px" d="M70,177.0 C70,89.5 220.0,89.5 220.0,177.0" fill="none" stroke="currentColor"/>
    <text dy="1.25em" style="font-size: 0.8em; letter-spacing: 1px">
        <textPath xlink:href="#arrow-52c27650f74f4289a6d74941c7e84548-0-0" class="displacy-label" startOffset="50%" side="left" fill="currentColor" text-anchor="middle">amod</textPath>
    </text>
    <path class="displacy-arrowhead" d="M70,179.0 L62,167.0 78,167.0" fill="currentColor"/>
</g>

<g class="displacy-arrow">
    <path class="displacy-arc" id="arrow-52c27650f74f4289a6d74941c7e84548-0-1" stroke-width="2px" d="M245,177.0 C245,2.0 575.0,2.0 575.0,177.0" fill="none" stroke="currentColor"/>
    <text dy="1.25em" style="font-size: 0.8em; letter-spacing: 1px">
        <textPath xlink:href="#arrow-52c27650f74f4289a6d74941c7e84548-0-1" class="displacy-label" startOffset="50%" side="left" fill="currentColor" text-anchor="middle">nsubj</textPath>
    </text>
    <path class="displacy-arrowhead" d="M245,179.0 L237,167.0 253,167.0" fill="currentColor"/>
</g>

<g class="displacy-arrow">
    <path class="displacy-arc" id="arrow-52c27650f74f4289a6d74941c7e84548-0-2" stroke-width="2px" d="M420,177.0 C420,89.5 570.0,89.5 570.0,177.0" fill="none" stroke="currentColor"/>
    <text dy="1.25em" style="font-size: 0.8em; letter-spacing: 1px">
        <textPath xlink:href="#arrow-52c27650f74f4289a6d74941c7e84548-0-2" class="displacy-label" startOffset="50%" side="left" fill="currentColor" text-anchor="middle">aux</textPath>
    </text>
    <path class="displacy-arrowhead" d="M420,179.0 L412,167.0 428,167.0" fill="currentColor"/>
</g>

<g class="displacy-arrow">
    <path class="displacy-arc" id="arrow-52c27650f74f4289a6d74941c7e84548-0-3" stroke-width="2px" d="M770,177.0 C770,89.5 920.0,89.5 920.0,177.0" fill="none" stroke="currentColor"/>
    <text dy="1.25em" style="font-size: 0.8em; letter-spacing: 1px">
        <textPath xlink:href="#arrow-52c27650f74f4289a6d74941c7e84548-0-3" class="displacy-label" startOffset="50%" side="left" fill="currentColor" text-anchor="middle">nummod</textPath>
    </text>
    <path class="displacy-arrowhead" d="M770,179.0 L762,167.0 778,167.0" fill="currentColor"/>
</g>

<g class="displacy-arrow">
    <path class="displacy-arc" id="arrow-52c27650f74f4289a6d74941c7e84548-0-4" stroke-width="2px" d="M595,177.0 C595,2.0 925.0,2.0 925.0,177.0" fill="none" stroke="currentColor"/>
    <text dy="1.25em" style="font-size: 0.8em; letter-spacing: 1px">
        <textPath xlink:href="#arrow-52c27650f74f4289a6d74941c7e84548-0-4" class="displacy-label" startOffset="50%" side="left" fill="currentColor" text-anchor="middle">dobj</textPath>
    </text>
    <path class="displacy-arrowhead" d="M925.0,179.0 L933.0,167.0 917.0,167.0" fill="currentColor"/>
</g>
</svg>