<svg xmlns="http://www.w3.org/2000/svg" xmlns:xlink="http://www.w3.org/1999/xlink" xml:lang="en" id="43dee88eedb54056800284a65846f2f8-0" class="displacy" width="2850" height="399.5" direction="ltr" style="max-width: none; height: 399.5px; color: #000000; background: #ffffff; font-family: Arial; direction: ltr">
<text class="displacy-token" fill="currentColor" text-anchor="middle" y="309.5">
    <tspan class="displacy-word" fill="currentColor" x="50">a</tspan>
    <tspan class="displacy-tag" dy="2em" fill="currentColor" x="50">DET</tspan>
</text>

<text class="displacy-token" fill="currentColor" text-anchor="middle" y="309.5">
    <tspan class="displacy-word" fill="currentColor" x="225">spreader</tspan>
    <tspan class="displacy-tag" dy="2em" fill="currentColor" x="225">NOUN</tspan>
</text>

<text class="displacy-token" fill="currentColor" text-anchor="middle" y="309.5">
    <tspan class="displacy-word" fill="currentColor" x="400">shall</tspan>
    <tspan class="displacy-tag" dy="2em" fill="currentColor" x="400">AUX</tspan>
</text>

<text class="displacy-token" fill="currentColor" text-anchor="middle" y="309.5">
    <tspan class="displacy-word" fill="currentColor" x="575">be</tspan>
    <tspan class="displacy-tag" dy="2em" fill="currentColor" x="575">AUX</tspan>
</text>

<text class="displacy-token" fill="currentColor" text-anchor="middle" y="309.5">
    <tspan class="displacy-word" fill="currentColor" x="750">installed</tspan>
    <tspan class="displacy-tag" dy="2em" fill="currentColor" x="750">VERB</tspan>
</text>

<text class="displacy-token" fill="currentColor" text-anchor="middle" y="309.5">
    <tspan class="displacy-word" fill="currentColor" x="925">to</tspan>
    <tspan class="displacy-tag" dy="2em" fill="currentColor" x="925">PART</tspan>
</text>

<text class="displacy-token" fill="currentColor" text-anchor="middle" y="309.5">
    <tspan class="displacy-word" fill="currentColor" x="1100">scatter</tspan>
    <tspan class="displacy-tag" dy="2em" fill="currentColor" x="1100">VERB</tspan>
</text>

<text class="displacy-token" fill="currentColor" text-anchor="middle" y="309.5">
    <tspan class="displacy-word" fill="currentColor" x="1275">a</tspan>
    <tspan class="displacy-tag" dy="2em" fill="currentColor" x="1275">DET</tspan>
</text>

<text class="displacy-token" fill="currentColor" text-anchor="middle" y="309.5">
    <tspan class="displacy-word" fill="currentColor" x="1450">layer</tspan>
    <tspan class="displacy-tag" dy="2em" fill="currentColor" x="1450">NOUN</tspan>
</text>

<text class="displacy-token" fill="currentColor" text-anchor="middle" y="309.5">
    <tspan class="displacy-word" fill="currentColor" x="1625">of</tspan>
    <tspan class="displacy-tag" dy="2em" fill="currentColor" x="1625">ADP</tspan>
</text>

<text class="displacy-token" fill="currentColor" text-anchor="middle" y="309.5">
    <tspan class="displacy-word" fill="currentColor" x="1800">tyre-</tspan>
    <tspan class="displacy-tag" dy="2em" fill="currentColor" x="1800">PROPN</tspan>
</text>

<text class="displacy-token" fill="currentColor" text-anchor="middle" y="309.5">
    <tspan class="displacy-word" fill="currentColor" x="1975">piecing</tspan>
    <tspan class="displacy-tag" dy="2em" fill="currentColor" x="1975">NOUN</tspan>
</text>

<text class="displacy-token" fill="currentColor" text-anchor="middle" y="309.5">
    <tspan class="displacy-word" fill="currentColor" x="2150">nails</tspan>
    <tspan class="displacy-tag" dy="2em" fill="currentColor" x="2150">NOUN</tspan>
</text>

<text class="displacy-token" fill="currentColor" text-anchor="middle" y="309.5">
    <tspan class="displacy-word" fill="currentColor" x="2325">behind</tspan>
    <tspan class="displacy-tag" dy="2em" fill="currentColor" x="2325">ADP</tspan>
</text>

<text class="displacy-token" fill="currentColor" text-anchor="middle" y="309.5">
    <tspan class="displacy-word" fill="currentColor" x="2500">the</tspan>
    <tspan class="displacy-tag" dy="2em" fill="currentColor" x="2500">DET</tspan>
</text>

<text class="displacy-token" fill="currentColor" text-anchor="middle" y="309.5">
    <tspan class="displacy-word" fill="currentColor" x="2675">vehicle</tspan>
    <tspan class="displacy-tag" dy="2em" fill="currentColor" x="2675">NOUN</tspan>
</text>

<g class="displacy-arrow">
    <path class="displacy-arc" id="arrow-43dee88eedb54056800284a65846f2f8-0-0" stroke-width="2px" d="M70,264.5 C70,177.0 215.0,177.0 215.0,264.5" fill="none" stroke="currentColor"/>
    <text dy="1.25em" style="font-size: 0.8em; letter-spacing: 1px">
        <textPath xlink:href="#arrow-43dee88eedb54056800284a65846f2f8-0-0" class="displacy-label" startOffset="50%" side="left" fill="currentColor" text-anchor="middle">det</textPath>
    </text>
    <path class="displacy-arrowhead" d="M70,266.5 L62,254.5 78,254.5" fill="currentColor"/>
</g>

<g class="displacy-arrow">
    <path class="displacy-arc" id="arrow-43dee88eedb54056800284a65846f2f8-0-1" stroke-width="2px" d="M245,264.5 C245,2.0 750.0,2.0 750.0,264.5" fill="none" stroke="currentColor"/>
    <text dy="1.25em" style="font-size: 0.8em; letter-spacing: 1px">
        <textPath xlink:href="#arrow-43dee88eedb54056800284a65846f2f8-0-1" class="displacy-label" startOffset="50%" side="left" fill="currentColor" text-anchor="middle">nsubjpass</textPath>
    </text>
    <path class="displacy-arrowhead" d="M245,266.5 L237,254.5 253,254.5" fill="currentColor"/>
</g>

<g class="displacy-arrow">
    <path class="displacy-arc" id="arrow-43dee88eedb54056800284a65846f2f8-0-2" stroke-width="2px" d="M420,264.5 C420,89.5 745.0,89.5 745.0,264.5" fill="none" stroke="currentColor"/>
    <text dy="1.25em" style="font-size: 0.8em; letter-spacing: 1px">
        <textPath xlink:href="#arrow-43dee88eedb54056800284a65846f2f8-0-2" class="displacy-label" startOffset="50%" side="left" fill="currentColor" text-anchor="middle">aux</textPath>
    </text>
    <path class="displacy-arrowhead" d="M420,266.5 L412,254.5 428,254.5" fill="currentColor"/>
</g>

<g class="displacy-arrow">
    <path class="displacy-arc" id="arrow-43dee88eedb54056800284a65846f2f8-0-3" stroke-width="2px" d="M595,264.5 C595,177.0 740.0,177.0 740.0,264.5" fill="none" stroke="currentColor"/>
    <text dy="1.25em" style="font-size: 0.8em; letter-spacing: 1px">
        <textPath xlink:href="#arrow-43dee88eedb54056800284a65846f2f8-0-3" class="displacy-label" startOffset="50%" side="left" fill="currentColor" text-anchor="middle">auxpass</textPath>
    </text>
    <path class="displacy-arrowhead" d="M595,266.5 L587,254.5 603,254.5" fill="currentColor"/>
</g>

<g class="displacy-arrow">
    <path class="displacy-arc" id="arrow-43dee88eedb54056800284a65846f2f8-0-4" stroke-width="2px" d="M945,264.5 C945,177.0 1090.0,177.0 1090.0,264.5" fill="none" stroke="currentColor"/>
    <text dy="1.25em" style="font-size: 0.8em; letter-spacing: 1px">
        <textPath xlink:href="#arrow-43dee88eedb54056800284a65846f2f8-0-4" class="displacy-label" startOffset="50%" side="left" fill="currentColor" text-anchor="middle">aux</textPath>
    </text>
    <path class="displacy-arrowhead" d="M945,266.5 L937,254.5 953,254.5" fill="currentColor"/>
</g>

<g class="displacy-arrow">
    <path class="displacy-arc" id="arrow-43dee88eedb54056800284a65846f2f8-0-5" stroke-width="2px" d="M770,264.5 C770,89.5 1095.0,89.5 1095.0,264.5" fill="none" stroke="currentColor"/>
    <text dy="1.25em" style="font-size: 0.8em; letter-spacing: 1px">
        <textPath xlink:href="#arrow-43dee88eedb54056800284a65846f2f8-0-5" class="displacy-label" startOffset="50%" side="left" fill="currentColor" text-anchor="middle">advcl</textPath>
    </text>
    <path class="displacy-arrowhead" d="M1095.0,266.5 L1103.0,254.5 1087.0,254.5" fill="currentColor"/>
</g>

<g class="displacy-arrow">
    <path class="displacy-arc" id="arrow-43dee88eedb54056800284a65846f2f8-0-6" stroke-width="2px" d="M1295,264.5 C1295,177.0 1440.0,177.0 1440.0,264.5" fill="none" stroke="currentColor"/>
    <text dy="1.25em" style="font-size: 0.8em; letter-spacing: 1px">
        <textPath xlink:href="#arrow-43dee88eedb54056800284a65846f2f8-0-6" class="displacy-label" startOffset="50%" side="left" fill="currentColor" text-anchor="middle">det</textPath>
    </text>
    <path class="displacy-arrowhead" d="M1295,266.5 L1287,254.5 1303,254.5" fill="currentColor"/>
</g>

<g class="displacy-arrow">
    <path class="displacy-arc" id="arrow-43dee88eedb54056800284a65846f2f8-0-7" stroke-width="2px" d="M1120,264.5 C1120,89.5 1445.0,89.5 1445.0,264.5" fill="none" stroke="currentColor"/>
    <text dy="1.25em" style="font-size: 0.8em; letter-spacing: 1px">
        <textPath xlink:href="#arrow-43dee88eedb54056800284a65846f2f8-0-7" class="displacy-label" startOffset="50%" side="left" fill="currentColor" text-anchor="middle">dobj</textPath>
    </text>
    <path class="displacy-arrowhead" d="M1445.0,266.5 L1453.0,254.5 1437.0,254.5" fill="currentColor"/>
</g>

<g class="displacy-arrow">
    <path class="displacy-arc" id="arrow-43dee88eedb54056800284a65846f2f8-0-8" stroke-width="2px" d="M1470,264.5 C1470,177.0 1615.0,177.0 1615.0,264.5" fill="none" stroke="currentColor"/>
    <text dy="1.25em" style="font-size: 0.8em; letter-spacing: 1px">
        <textPath xlink:href="#arrow-43dee88eedb54056800284a65846f2f8-0-8" class="displacy-label" startOffset="50%" side="left" fill="currentColor" text-anchor="middle">prep</textPath>
    </text>
    <path class="displacy-arrowhead" d="M1615.0,266.5 L1623.0,254.5 1607.0,254.5" fill="currentColor"/>
</g>

<g class="displacy-arrow">
    <path class="displacy-arc" id="arrow-43dee88eedb54056800284a65846f2f8-0-9" stroke-width="2px" d="M1820,264.5 C1820,177.0 1965.0,177.0 1965.0,264.5" fill="none" stroke="currentColor"/>
    <text dy="1.25em" style="font-size: 0.8em; letter-spacing: 1px">
        <textPath xlink:href="#arrow-43dee88eedb54056800284a65846f2f8-0-9" class="displacy-label" startOffset="50%" side="left" fill="currentColor" text-anchor="middle">compound</textPath>
    </text>
    <path class="displacy-arrowhead" d="M1820,266.5 L1812,254.5 1828,254.5" fill="currentColor"/>
</g>

<g class="displacy-arrow">
    <path class="displacy-arc" id="arrow-43dee88eedb54056800284a65846f2f8-0-10" stroke-width="2px" d="M1995,264.5 C1995,177.0 2140.0,177.0 2140.0,264.5" fill="none" stroke="currentColor"/>
    <text dy="1.25em" style="font-size: 0.8em; letter-spacing: 1px">
        <textPath xlink:href="#arrow-43dee88eedb54056800284a65846f2f8-0-10" class="displacy-label" startOffset="50%" side="left" fill="currentColor" text-anchor="middle">compound</textPath>
    </text>
    <path class="displacy-arrowhead" d="M1995,266.5 L1987,254.5 2003,254.5" fill="currentColor"/>
</g>

<g class="displacy-arrow">
    <path class="displacy-arc" id="arrow-43dee88eedb54056800284a65846f2f8-0-11" stroke-width="2px" d="M1645,264.5 C1645,2.0 2150.0,2.0 2150.0,264.5" fill="none" stroke="currentColor"/>
    <text dy="1.25em" style="font-size: 0.8em; letter-spacing: 1px">
        <textPath xlink:href="#arrow-43dee88eedb54056800284a65846f2f8-0-11" class="displacy-label" startOffset="50%" side="left" fill="currentColor" text-anchor="middle">pobj</textPath>
    </text>
    <path class="displacy-arrowhead" d="M2150.0,266.5 L2158.0,254.5 2142.0,254.5" fill="currentColor"/>
</g>

<g class="displacy-arrow">
    <path class="displacy-arc" id="arrow-43dee88eedb54056800284a65846f2f8-0-12" stroke-width="2px" d="M2170,264.5 C2170,177.0 2315.0,177.0 2315.0,264.5" fill="none" stroke="currentColor"/>
    <text dy="1.25em" style="font-size: 0.8em; letter-spacing: 1px">
        <textPath xlink:href="#arrow-43dee88eedb54056800284a65846f2f8-0-12" class="displacy-label" startOffset="50%" side="left" fill="currentColor" text-anchor="middle">prep</textPath>
    </text>
    <path class="displacy-arrowhead" d="M2315.0,266.5 L2323.0,254.5 2307.0,254.5" fill="currentColor"/>
</g>

<g class="displacy-arrow">
    <path class="displacy-arc" id="arrow-43dee88eedb54056800284a65846f2f8-0-13" stroke-width="2px" d="M2520,264.5 C2520,177.0 2665.0,177.0 2665.0,264.5" fill="none" stroke="currentColor"/>
    <text dy="1.25em" style="font-size: 0.8em; letter-spacing: 1px">
        <textPath xlink:href="#arrow-43dee88eedb54056800284a65846f2f8-0-13" class="displacy-label" startOffset="50%" side="left" fill="currentColor" text-anchor="middle">det</textPath>
    </text>
    <path class="displacy-arrowhead" d="M2520,266.5 L2512,254.5 2528,254.5" fill="currentColor"/>
</g>

<g class="displacy-arrow">
    <path class="displacy-arc" id="arrow-43dee88eedb54056800284a65846f2f8-0-14" stroke-width="2px" d="M2345,264.5 C2345,89.5 2670.0,89.5 2670.0,264.5" fill="none" stroke="currentColor"/>
    <text dy="1.25em" style="font-size: 0.8em; letter-spacing: 1px">
        <textPath xlink:href="#arrow-43dee88eedb54056800284a65846f2f8-0-14" class="displacy-label" startOffset="50%" side="left" fill="currentColor" text-anchor="middle">pobj</textPath>
    </text>
    <path class="displacy-arrowhead" d="M2670.0,266.5 L2678.0,254.5 2662.0,254.5" fill="currentColor"/>
</g>
</svg>